﻿"Key","Item Type","Publication Year","Author","Title","Publication Title","ISBN","ISSN","DOI","Url","Abstract Note","Date","Date Added","Date Modified","Access Date","Pages","Num Pages","Issue","Volume","Number Of Volumes","Journal Abbreviation","Short Title","Series","Series Number","Series Text","Series Title","Publisher","Place","Language","Rights","Type","Archive","Archive Location","Library Catalog","Call Number","Extra","Notes","File Attachments","Link Attachments","Manual Tags","Automatic Tags","Editor","Series Editor","Translator","Contributor","Attorney Agent","Book Author","Cast Member","Commenter","Composer","Cosponsor","Counsel","Interviewer","Producer","Recipient","Reviewed Author","Scriptwriter","Words By","Guest","Number","Edition","Running Time","Scale","Medium","Artwork Size","Filing Date","Application Number","Assignee","Issuing Authority","Country","Meeting Name","Conference Name","Court","References","Reporter","Legal Status","Priority Numbers","Programming Language","Version","System","Code","Code Number","Section","Session","Committee","History","Legislative Body"
"J6CVLAEQ","conferencePaper","2008","Bungartz, Hans-Joachim; Eckhardt, Wolfgang; Mehl, Miriam; Weinzierl, Tobias","DaStGen—A data structure generator for parallel C++ HPC software","International Conference on Computational Science","","","","","","2008","2018-02-22 16:54:15","2018-02-22 16:54:15","","213–222","","","","","","","","","","","Springer","","","","","","","Google Scholar","","","","","","","","","","","","","","","","","","","","","","","","","","","","","","","","","","","","","","","","","","","","","","","","","","","","",""
"KWAM8Y8Z","conferencePaper","2013","Andrioaia, Dragoș; Rotar, Dan; Puiu, Gabriel","Determining the driving torques of the robots with Delta 3DOF parallel structure by using the MSC ADAMS software pack","Applied Mechanics and Materials","","","","","","2013","2018-02-22 16:54:15","2018-02-22 16:54:15","","224–228","","","332","","","","","","","","Trans Tech Publ","","","","","","","Google Scholar","","","","","","","","","","","","","","","","","","","","","","","","","","","","","","","","","","","","","","","","","","","","","","","","","","","","",""
"TWRDH59F","journalArticle","2011","Enkovaara, Jussi; Romero, Nichols A.; Shende, Sameer; Mortensen, Jens J.","GPAW-massively parallel electronic structure calculations with Python-based software","Procedia Computer Science","","","","","","2011","2018-02-22 16:54:15","2018-02-22 16:54:15","","17–25","","","4","","","","","","","","","","","","","","","Google Scholar","","","","","","","","","","","","","","","","","","","","","","","","","","","","","","","","","","","","","","","","","","","","","","","","","","","","",""
"KV23BA8F","journalArticle","2007","SUN, He-min; WANG, Hong; BI, Hong-kui","Evaluation of a Ultra-high Speed Non-uniformly Working ADC with Parallel Structure in the Software Radar [J]","Fire Control and Command Control","","","","","","2007","2018-02-22 16:54:15","2018-02-22 16:54:15","","021","","","4","","","","","","","","","","","","","","","Google Scholar","","","","","","","","","","","","","","","","","","","","","","","","","","","","","","","","","","","","","","","","","","","","","","","","","","","","",""
"NXUAG2ME","journalArticle","2004","Li, Lijun; Jin, Xianlong; Li, Yuanyin","Parallel algorithm and software development for structure seismic response analysis","Nuclear Power Engineering","","","","","","2004","2018-02-22 16:54:15","2018-02-22 16:54:15","","210–213","","3","25","","","","","","","","","","","","","","","Google Scholar","","","","","","","","","","","","","","","","","","","","","","","","","","","","","","","","","","","","","","","","","","","","","","","","","","","","",""
"M4F3ZME6","report","2015","DePrince, Eugene","Parallel Two-Electron Reduced Density Matrix Based Electronic Structure Software for Highly Correlated Molecules and Materials","","","","","","","2015","2018-02-22 16:54:15","2018-02-22 16:54:15","","","","","","","","","","","","","Q-Chem, Inc. Pleasanton United States","","","","","","","Google Scholar","","","","","","","","","","","","","","","","","","","","","","","","","","","","","","","","","","","","","","","","","","","","","","","","","","","","",""
"NA7UPN2Y","conferencePaper","2016","Tsmots, Ivan; Skorokhoda, Oleksa; Rabyk, Vasyl","Structure and software model of a parallel-vertical multi-input adder for FPGA implementation","Scientific and Technical Conference “Computer Sciences and Information Technologies (CSIT), 2016 XIth International","","","","","","2016","2018-02-22 16:54:15","2018-02-22 16:54:15","","158–160","","","","","","","","","","","IEEE","","","","","","","Google Scholar","","","","","","","","","","","","","","","","","","","","","","","","","","","","","","","","","","","","","","","","","","","","","","","","","","","","",""
"4P7XUKS4","journalArticle","2008","ZHANG, Jun-nan; GAO, Feng-ge","Software Radio Intermediate Frequency Receiver Based on the Parallel Analog-to-digital Structure","Science Technology and Engineering","","","","","","2008","2018-02-22 16:54:15","2018-02-22 16:54:15","","011","","","19","","","","","","","","","","","","","","","Google Scholar","","","","","","","","","","","","","","","","","","","","","","","","","","","","","","","","","","","","","","","","","","","","","","","","","","","","",""
"ZWA3KM2X","conferencePaper","2009","Sun, Hemin; Fan, Weishi; Meng, Ze","Evaluation of an ultra-high speed non-uniformly working ADC with parallel structure in the software radar system","Network Infrastructure and Digital Content, 2009. IC-NIDC 2009. IEEE International Conference on","","","","","","2009","2018-02-22 16:54:15","2018-02-22 16:54:15","","1045–1049","","","","","","","","","","","IEEE","","","","","","","Google Scholar","","","","","","","","","","","","","","","","","","","","","","","","","","","","","","","","","","","","","","","","","","","","","","","","","","","","",""
"PU6ZH5LT","journalArticle","2007","Cheng, Yuxin; Zhang, Lei; Yi, Na; Xiang, Haige","This paper describes a parallel computing platform using the existing facilities for the digital watershed model. In this paper, distributed multi-layered structure is applied to the computer cluster system, and the MPI-2 is adopted as a mature parallel programming standard. An agent is introduced which makes it possible to be multi-level fault-tolerant in software development. The communication protocol...","Tsinghua Science & Technology","","","","","","2007","2018-02-22 16:54:15","2018-02-22 16:54:15","","162–168","","1","12","","","","","","","","","","","","","","","Google Scholar","","","","","","","","","","","","","","","","","","","","","","","","","","","","","","","","","","","","","","","","","","","","","","","","","","","","",""
"UIW2WDQZ","journalArticle","","SORIGA, STEFAN GABRIEL; IANCU, PETRICA; MAN, ISABELA COSTINELA; MARTON, GEORGE; PLESU, VALENTIN","Optimizing Parallel Electronic Structure Calculations Through Customized Software Environment","","","","","","","","2018-02-22 16:54:15","2018-02-22 16:54:15","","","","","","","","","","","","","","","","","","","","Google Scholar","","","","","","","","","","","","","","","","","","","","","","","","","","","","","","","","","","","","","","","","","","","","","","","","","","","","",""
"6QRLW5MJ","conferencePaper","2003","Zhao, Sujian; Shen, Cong; Su, Xin; Yao, Yan","A parallel ADC structure for software radio receiver","TENCON 2003. Conference on Convergent Technologies for the Asia-Pacific Region","","","","","","2003","2018-02-22 16:54:15","2018-02-22 16:54:15","","1025–1027","","","3","","","","","","","","IEEE","","","","","","","Google Scholar","","","","","","","","","","","","","","","","","","","","","","","","","","","","","","","","","","","","","","","","","","","","","","","","","","","","",""
"HCMDXR6C","journalArticle","2017","Hu, Changjun; Bai, He; He, Xinfu; Zhang, Boyao; Nie, Ningming; Wang, Xianmeng; Ren, Yingwen","Crystal MD: The massively parallel molecular dynamics software for metal with BCC structure","Computer Physics Communications","","","","","","2017","2018-02-22 16:54:15","2018-02-22 16:54:15","","73–78","","","211","","","Crystal MD","","","","","","","","","","","","Google Scholar","","","","","","","","","","","","","","","","","","","","","","","","","","","","","","","","","","","","","","","","","","","","","","","","","","","","",""