Key,Item Type,Publication Year,Author,Title,Publication Title,ISBN,ISSN,DOI,Url,Abstract Note,Date,Date Added,Date Modified,Access Date,Pages,Num Pages,Issue,Volume,Number Of Volumes,Journal Abbreviation,Short Title,Series,Series Number,Series Text,Series Title,Publisher,Place,Language,Rights,Type,Archive,Archive Location,Library Catalog,Call Number,Extra,Notes,File Attachments,Link Attachments,Manual Tags,Automatic Tags,Editor,Series Editor,Translator,Contributor,Attorney Agent,Book Author,Cast Member,Commenter,Composer,Cosponsor,Counsel,Interviewer,Producer,Recipient,Reviewed Author,Scriptwriter,Words By,Guest,Number,Edition,Running Time,Scale,Medium,Artwork Size,Filing Date,Application Number,Assignee,Issuing Authority,Country,Meeting Name,Conference Name,Court,References,Reporter,Legal Status,Priority Numbers,Programming Language,Version,System,Code,Code Number,Section,Session,Committee,History,Legislative Body
ULF9IZWH,journalArticle,,"ZEGOUR, WK HIDOUCI-DE",An actor like data model for a parallel DBMS,,,,,,,,2018-02-12 13:31:42,2018-02-12 13:31:42,,,,,,,,,,,,,,,,,,,,Google Scholar,,,,,,,,,,,,,,,,,,,,,,,,,,,,,,,,,,,,,,,,,,,,,,,,,,,,,
PG7AI3HG,journalArticle,2011,"Park, Hae-woo; Jung, Hanwoong; Oh, Hyunok; Ha, Soonhoi",Library support in an actor-based parallel programming platform,IEEE Transactions on Industrial Informatics,,,,,,2011,2018-02-12 13:31:42,2018-02-12 13:31:42,,340–353,,2,7,,,,,,,,,,,,,,,Google Scholar,,,,,,,,,,,,,,,,,,,,,,,,,,,,,,,,,,,,,,,,,,,,,,,,,,,,,
5S5KS8LG,conferencePaper,2016,"Rosà, Andrea; Chen, Lydia Y.; Binder, Walter",Efficient profiling of actor-based applications in parallel and distributed systems,"Proceedings of the 11th Workshop on Implementation, Compilation, Optimization of Object-Oriented Languages, Programs and Systems",,,,,,2016,2018-02-12 13:31:42,2018-02-12 13:31:42,,9,,,,,,,,,,,ACM,,,,,,,Google Scholar,,,,,,,,,,,,,,,,,,,,,,,,,,,,,,,,,,,,,,,,,,,,,,,,,,,,,
BAV9QHEF,conferencePaper,2011,"Rodriguez, Jonathan; Lhoták, Ondřej",Actor-based parallel dataflow analysis,International Conference on Compiler Construction,,,,,,2011,2018-02-12 13:31:42,2018-02-12 13:31:42,,179–197,,,,,,,,,,,Springer,,,,,,,Google Scholar,,,,,,,,,,,,,,,,,,,,,,,,,,,,,,,,,,,,,,,,,,,,,,,,,,,,,
8KYW63TY,conferencePaper,2010,"Scholliers, Christophe; Tanter, Éric; De Meuter, Wolfgang",Parallel actor monitors,14th Brazilian Symposium on Programming Languages,,,,,,2010,2018-02-12 13:31:42,2018-02-12 13:31:42,,,,,,,,,,,,,,,,,,,,Google Scholar,,,,,,,,,,,,,,,,,,,,,,,,,,,,,,,,,,,,,,,,,,,,,,,,,,,,,
JINU7AE3,journalArticle,,"Hotz, Lothar; Trowe, Michael",NetCLOS and Parallel Abstractions-Actor and Structure-Oriented Programming on Workstation Clusters with Common Lisp?,,,,,,,,2018-02-12 13:31:42,2018-02-12 13:31:42,,,,,,,,,,,,,,,,,,,,Google Scholar,,,,,,,,,,,,,,,,,,,,,,,,,,,,,,,,,,,,,,,,,,,,,,,,,,,,,
VZX7FSCR,journalArticle,2016,"Yang, Chun-xi; Huang, Ling-yun; Zhang, Hao; Hua, Wang",Multirate parallel distributed compensation of a cluster in wireless sensor and actor networks,International Journal of Systems Science,,,,,,2016,2018-02-12 13:31:42,2018-02-12 13:31:42,,1–13,,1,47,,,,,,,,,,,,,,,Google Scholar,,,,,,,,,,,,,,,,,,,,,,,,,,,,,,,,,,,,,,,,,,,,,,,,,,,,,
X945YFU4,journalArticle,,"Loops, Iterative Spatial",Compilation of a Highly Parallel Actor-Based Language p. 1 A Concurrent Execution Semantics for Parallel Program Graphs and Program Dependence Graphs,,,,,,,,2018-02-12 13:31:42,2018-02-12 13:31:42,,,,,,,,,,,,,,,,,,,,Google Scholar,,,,,,,,,,,,,,,,,,,,,,,,,,,,,,,,,,,,,,,,,,,,,,,,,,,,,
L2JNGM6M,journalArticle,2014,"Scholliers, Christophe; Tanter, Éric; De Meuter, Wolfgang",Parallel actor monitors: Disentangling task-level parallelism from data partitioning in the actor model,Science of Computer Programming,,,,,,2014,2018-02-12 13:31:42,2018-02-12 13:31:42,,52–64,,,80,,,Parallel actor monitors,,,,,,,,,,,,Google Scholar,,,,,,,,,,,,,,,,,,,,,,,,,,,,,,,,,,,,,,,,,,,,,,,,,,,,,
5UFZYQRZ,book,2013,"DeLorimier, Michael",Graph parallel actor language—a programming language for parallel graph algorithms,,,,,,,2013,2018-02-12 13:31:42,2018-02-12 13:31:42,,,,,,,,,,,,,California Institute of Technology,,,,,,,Google Scholar,,,,,,,,,,,,,,,,,,,,,,,,,,,,,,,,,,,,,,,,,,,,,,,,,,,,,
EHT82MA2,conferencePaper,2015,"Harvey, Paul; Hentschel, Kristian; Sventek, Joseph",Parallel programming in actor-based applications via opencl,Proceedings of the 16th Annual Middleware Conference,,,,,,2015,2018-02-12 13:31:42,2018-02-12 13:31:42,,162–172,,,,,,,,,,,ACM,,,,,,,Google Scholar,,,,,,,,,,,,,,,,,,,,,,,,,,,,,,,,,,,,,,,,,,,,,,,,,,,,,
5QEGY27X,journalArticle,2008,"Hidouchi, W. K.; Ezegour, D.",An actor like data model for a parallel DBMS.,Journal of Digital Information Management,,,,,,2008,2018-02-12 13:31:42,2018-02-12 13:31:42,,,,3,6,,,,,,,,,,,,,,,Google Scholar,,,,,,,,,,,,,,,,,,,,,,,,,,,,,,,,,,,,,,,,,,,,,,,,,,,,,
6W7STP32,journalArticle,,"Hayduk, Yaroslav; Sobe, Anita; Felber, Pascal",Dynamic parallel message processing with transactional memory in the actor model,,,,,,,,2018-02-12 13:31:42,2018-02-12 13:31:42,,,,,,,,,,,,,,,,,,,,Google Scholar,,,,,,,,,,,,,,,,,,,,,,,,,,,,,,,,,,,,,,,,,,,,,,,,,,,,,
CKY3FJG8,thesis,2007,"Szabó, Lídia",The EU and pharmaceutical parallel trade: an actor-based analysis of EU-level policy outcomes,,,,,,,2007,2018-02-12 13:31:42,2018-02-12 13:31:42,,,,,,,,The EU and pharmaceutical parallel trade,,,,,Central European University,,,,PhD Thesis,,,Google Scholar,,,,,,,,,,,,,,,,,,,,,,,,,,,,,,,,,,,,,,,,,,,,,,,,,,,,,
T4PYRY8Q,journalArticle,2017,"Bujoreanu-Huțanu, Raluca",Part II. Drama/Choreography3. The Puppet–The Actor: Parallel Mirrors,Review of Artistic Education,,,,,,2017,2018-02-12 13:31:42,2018-02-12 13:31:42,,109–118,,1,13,,,Part II. Drama/Choreography3. The Puppet–The Actor,,,,,,,,,,,,Google Scholar,,,,,,,,,,,,,,,,,,,,,,,,,,,,,,,,,,,,,,,,,,,,,,,,,,,,,
AAUE4TAG,book,2010,"Khanfar, Husni",Implementing CAL Actor Component on Massively Parallel Processor Array,,,,,,,2010,2018-02-12 13:31:42,2018-02-12 13:31:42,,,,,,,,,,,,,,,,,,,,Google Scholar,,,,,,,,,,,,,,,,,,,,,,,,,,,,,,,,,,,,,,,,,,,,,,,,,,,,,
TVS93P9D,journalArticle,2016,"Albert, Elvira; Flores-Montoya, Antonio; Genaim, Samir; Martin-Martin, Enrique",May-happen-in-parallel analysis for actor-based concurrency,ACM Transactions on Computational Logic (TOCL),,,,,,2016,2018-02-12 13:31:42,2018-02-12 13:31:42,,11,,2,17,,,,,,,,,,,,,,,Google Scholar,,,,,,,,,,,,,,,,,,,,,,,,,,,,,,,,,,,,,,,,,,,,,,,,,,,,,
DK9ZEIMX,journalArticle,2017,"Глибовець, М. М.; Гороховський, С. С.; Зінчук, С. О.; Кравченко, М. В.",Renaissance of actor model application to the development of parallel and distributed systems,ПРОБЛЕМИ ПРОГРАМУВАННЯ,,,,,,2017,2018-02-12 13:31:42,2018-02-12 13:31:42,,,,2,,,,,,,,,,,,,,,,Google Scholar,,,,,,,,,,,,,,,,,,,,,,,,,,,,,,,,,,,,,,,,,,,,,,,,,,,,,
MI8KBQWJ,conferencePaper,2003,"Lee, Edward A.",Model-driven development-from object-oriented design to actor-oriented design,"Workshop on Software Engineering for Embedded Systems: From Requirements to Implementation (aka The Monterey Workshop), Chicago",,,,,,2003,2018-02-12 13:32:12,2018-02-12 13:32:12,,,,,,,,,,,,,,,,,,,,Google Scholar,,,,,,,,,,,,,,,,,,,,,,,,,,,,,,,,,,,,,,,,,,,,,,,,,,,,,
5PC8RUMQ,conferencePaper,2010,"Du, Nanshan; Li, Qing; Liang, Yiwen","Actor petri net model for scientific workflows: Model, design and system",Proceedings of the 4th International Conference on Uniquitous Information Management and Communication,,,,,,2010,2018-02-12 13:32:12,2018-02-12 13:32:12,,55,,,,,,Actor petri net model for scientific workflows,,,,,ACM,,,,,,,Google Scholar,,,,,,,,,,,,,,,,,,,,,,,,,,,,,,,,,,,,,,,,,,,,,,,,,,,,,
NK3M73V6,journalArticle,,"Simonse, Lianne; van Meeuwen, Dorine; van Walt Meijer, Quirine; Badke-Schaub, Petra",Visual business model design: designing with a dedicated actor-transaction toolset in the case of online health protection services,,,,,,,,2018-02-12 13:32:12,2018-02-12 13:32:12,,,,,,,,Visual business model design,,,,,,,,,,,,Google Scholar,,,,,,,,,,,,,,,,,,,,,,,,,,,,,,,,,,,,,,,,,,,,,,,,,,,,,
J6G8Y9X5,journalArticle,2012,"Nicquevert, B.","Managing the interface-An approach through the complexity of the collaborative process of design, integration and realization: a transactional model of the interface actor and dynamics of exchange spaces",,,,,,,2012,2018-02-12 13:32:12,2018-02-12 13:32:12,,,,,,,,"Managing the interface-An approach through the complexity of the collaborative process of design, integration and realization",,,,,,,,,,,,Google Scholar,,,,,,,,,,,,,,,,,,,,,,,,,,,,,,,,,,,,,,,,,,,,,,,,,,,,,
V5S5G2KR,journalArticle,,"Falk, Joachim; Zebelein, Christian; Keinert, Joachim; Haubelt, Christian; Teich, Juergen; Bhattacharyya, Shuvra S.",Analysis of SystemC Actor Networks for Efficient Synthesis Submitted to the Special issue on Model-driven Embedded System Design,,,,,,,,2018-02-12 13:32:12,2018-02-12 13:32:12,,,,,,,,,,,,,,,,,,,,Google Scholar,,,,,,,,,,,,,,,,,,,,,,,,,,,,,,,,,,,,,,,,,,,,,,,,,,,,,
7KPLJ8S8,conferencePaper,2006,"Indrusiak, Leandro Soares; Glesner, Manfred",An Actor-Oriented Model-Based Design Flow for Systems-on-Chip.,MBEES,,,,,,2006,2018-02-12 13:32:12,2018-02-12 13:32:12,,65–74,,,,,,,,,,,,,,,,,,Google Scholar,,,,,,,,,,,,,,,,,,,,,,,,,,,,,,,,,,,,,,,,,,,,,,,,,,,,,
RYM58PDU,journalArticle,2018,"Zafar, Shanza",Incremental Model Based Actor Critic Design for Optimal Adaptive Flight Control: Investigation and Implementation of Online Flight Control Methods,,,,,,,2018,2018-02-12 13:32:12,2018-02-12 13:32:12,,,,,,,,Incremental Model Based Actor Critic Design for Optimal Adaptive Flight Control,,,,,,,,,,,,Google Scholar,,,,,,,,,,,,,,,,,,,,,,,,,,,,,,,,,,,,,,,,,,,,,,,,,,,,,
LYH66T8C,journalArticle,2008,"Fatchiya, Anna","Social action model with program of cultivation of crab is one of the problem solving altematives of conflict among branchish waterpond society with govemment (Ministry of Forestry of Republic of Indonesia· Perhutani""). There are different interest among them that the coastal (mangrove forest) in order to a conservation and another side to living of the branch ish waterpond community. The objectives of the research were (1) to describe of the social action components in the study location, and (2) to design a social action model with program of cultivation oferab. The research showed that (1) social action components indicated as (1) the actor components were branchish waterpond and"" Perhutani"",(b) situational and problem component was a conflict of different interest among coastal pond communitiy with"" Perhutani"",(c) the objective component mangrove was in order to living for the branch ish waterpond, but for"" Perhutani"" it was in order to conservation thing,(d) the value and norm component (e) there are legal formal and tradition (informal) about coastal management were adopted by them, and the way of the objective component by branch ish waterpond the mangrove in order to cultivate of fish, settlement, and firewood, and by Perhutani was monitoring and controlling of this (2) the principles of social action were participation, empowering, autonomy, and sustainability. To design of social action model systematically with step by step way. Firstly, planning (data collecting, data analyzing, problem identification, priority problem ellection, decide objective of program), input identlcation, decide of output, decide of outcomes, and evaluation",Buletin Ekonomi Perikanan,,,,,,2008,2018-02-12 13:32:12,2018-02-12 13:32:12,,,,2,8,,,,,,,,,,,,,,,Google Scholar,,,,,,,,,,,,,,,,,,,,,,,,,,,,,,,,,,,,,,,,,,,,,,,,,,,,,
